1342.06,582.69,1131.87,529.12,805.93,996.60,424.25,478.17,1415.21,284.60,462.41,81.65,127.72,93.05,204.35,478.04,178.84,81.52,13123.00,0.00,1155.00,216.36,3.95,0.04,3382365.00,647615.44,429.79,697.00,22.32,0.00,4
1445.97,600.41,1131.87,530.07,805.93,996.60,424.73,478.17,1416.33,285.03,461.34,81.25,126.85,91.40,202.52,475.69,178.23,79.65,13773.00,0.00,1084.00,216.36,3.95,0.04,3382365.00,636488.94,429.79,699.00,22.40,0.00,4
1533.37,616.26,1131.87,531.96,805.93,995.88,424.73,478.17,1416.33,285.03,473.16,81.65,126.85,91.40,201.60,474.52,177.63,79.65,13726.00,17418.00,1218.00,194.68,3.95,0.04,2884675.50,574813.69,429.79,695.00,22.46,47.76,4
1533.37,616.26,1132.81,531.96,805.93,996.60,424.73,477.69,1415.21,285.03,461.34,81.65,126.85,90.58,201.60,474.52,177.63,78.71,13869.00,17418.00,1218.00,192.20,3.95,0.04,2884675.50,546945.00,429.79,697.00,22.51,48.23,4
