1445.00,588.29,1100.85,517.74,786.48,973.74,416.98,469.04,1385.91,278.66,451.66,80.07,124.25,88.93,197.93,471.01,174.61,77.77,14361.00,18099.00,0.00,21.96,2.71,0.00,107413.77,0.00,105.74,691.00,0.00,48.08,0
1453.74,591.08,1101.79,518.69,786.48,973.74,417.47,469.52,1388.16,278.66,448.43,80.07,124.25,89.75,197.93,471.01,174.61,77.77,14361.00,18099.00,176.00,23.20,2.71,0.00,116700.41,0.00,105.74,691.00,21.99,48.06,0
1452.76,591.08,1101.79,518.69,787.23,974.45,417.47,469.52,1387.04,279.09,463.49,80.07,124.25,88.93,197.93,471.01,174.61,77.77,14352.00,18086.00,176.00,23.36,2.71,0.09,116700.41,36824.67,105.74,691.00,21.99,48.05,0
1453.74,591.08,1101.79,518.69,787.23,974.45,417.47,469.52,1387.04,279.09,451.66,80.07,124.25,89.75,197.93,471.01,174.61,77.77,14380.00,18111.00,148.00,23.20,2.71,0.09,116700.41,36500.64,105.74,691.00,21.99,48.05,0
1453.74,591.08,1101.79,518.69,787.23,973.74,417.47,469.52,1387.04,279.09,450.58,80.07,124.25,88.93,197.93,471.01,174.61,77.77,14380.00,18111.00,154.00,23.20,2.71,0.09,116700.41,36500.64,105.74,692.00,21.97,48.05,0
1453.74,591.08,1101.79,518.69,787.23,973.74,417.47,469.52,1388.16,279.09,451.66,80.07,124.25,88.93,197.93,471.01,174.61,77.77,14375.00,18111.00,154.00,23.20,2.71,0.09,116700.41,36500.64,105.74,693.00,21.99,48.05,0
1453.74,591.08,1101.79,518.69,787.23,974.45,417.47,469.52,1388.16,278.66,463.49,80.07,124.25,89.75,197.93,471.01,174.61,77.77,14356.00,18111.00,162.00,22.26,2.71,0.09,116700.41,36500.64,105.74,692.00,21.99,47.78,0
1365.37,574.30,1095.21,516.79,784.23,973.02,416.50,469.04,1387.04,277.39,462.41,79.67,124.25,88.93,197.93,471.01,174.61,77.77,14349.00,18103.00,163.00,23.36,2.71,0.09,117921.49,36500.64,105.74,692.00,22.01,47.79,0
1252.72,554.72,1095.21,513.95,784.23,972.31,416.01,468.08,1387.04,277.39,450.58,79.28,124.25,88.93,197.93,471.01,174.61,76.84,14345.00,18101.00,163.00,23.36,2.71,0.09,117921.49,36824.67,105.74,692.00,22.01,47.79,0
1249.80,553.79,1097.09,513.95,784.98,973.02,416.50,468.56,1388.16,277.39,450.58,79.67,124.25,88.93,197.93,471.01,174.61,76.84,14362.00,18100.00,165.00,23.20,2.71,0.09,116700.41,36824.67,105.74,694.00,22.03,47.79,0
1253.69,554.72,1100.85,513.95,786.48,972.31,416.01,468.56,1387.04,278.66,462.41,79.67,124.25,88.93,197.93,471.01,174.61,76.84,14372.00,18100.00,154.00,23.20,2.71,0.09,116700.41,36500.64,105.74,694.00,22.03,48.10,0
1434.31,587.36,1100.85,517.74,786.48,973.74,416.98,469.04,1387.04,278.66,462.41,80.07,124.25,88.93,197.93,471.01,174.61,77.77,14354.00,18104.00,155.00,23.04,2.71,0.09,115493.14,36500.64,105.74,694.00,22.00,47.94,0
1434.31,587.36,1100.85,517.74,786.48,973.74,416.98,469.04,1387.04,278.66,450.58,80.07,124.25,89.75,197.93,471.01,174.61,77.77,14368.00,18104.00,160.00,23.04,2.71,0.09,115493.14,36179.78,105.74,694.00,21.96,47.94,0
1447.91,589.22,1100.85,518.69,786.48,973.74,416.98,469.04,1387.04,278.66,450.58,80.07,124.25,89.75,197.93,471.01,174.61,77.77,14308.00,18096.00,159.00,23.04,2.71,0.09,115493.14,36179.78,105.74,695.00,21.96,47.94,0
1456.65,591.08,1101.79,518.69,787.23,973.74,417.47,469.52,1387.04,279.09,451.66,80.07,124.25,88.93,197.93,471.01,174.61,77.77,14299.00,18071.00,191.00,23.36,2.71,0.09,117921.49,36824.67,105.74,698.00,21.99,48.14,0
1455.68,591.08,1101.79,518.69,787.23,973.74,417.47,469.52,1388.16,278.66,450.58,80.07,124.25,89.75,197.93,471.01,174.61,77.77,14279.00,18068.00,194.00,23.36,2.71,0.09,117921.49,36824.67,105.74,699.00,21.97,48.14,0
1456.65,591.08,1101.79,518.69,786.48,973.74,417.47,469.52,1388.16,278.66,463.49,80.07,124.25,88.93,197.93,471.01,174.61,77.77,14314.00,18062.00,194.00,23.36,2.71,0.08,117921.49,36824.67,105.74,701.00,21.97,48.68,0
1436.26,588.29,1098.97,518.69,785.73,973.74,417.47,469.52,1388.16,278.24,462.41,80.07,124.25,89.75,197.93,471.01,174.61,77.77,14338.00,18074.00,187.00,23.36,2.71,0.08,117921.49,36824.67,105.74,734.00,21.99,48.88,0
1436.26,587.36,1096.15,518.69,784.23,973.74,417.47,469.52,1388.16,277.39,462.41,80.07,124.25,89.75,197.93,471.01,174.61,77.77,14334.00,18074.00,186.00,23.36,2.71,0.09,117921.49,36824.67,105.74,749.00,22.01,48.69,0
1355.65,573.37,1095.21,516.79,784.23,973.74,416.98,469.04,1388.16,277.39,462.41,79.67,124.25,88.93,197.93,471.01,174.61,77.77,14328.00,18079.00,197.00,23.36,2.71,0.09,117921.49,36824.67,105.74,759.00,22.01,48.69,0
1275.05,559.39,1095.21,514.89,783.48,972.31,416.01,468.56,1387.04,277.39,450.58,79.67,124.25,88.93,197.93,471.01,174.61,76.84,14328.00,18079.00,182.00,23.36,2.71,0.09,117921.49,36824.67,105.74,764.00,21.99,48.69,0
1252.72,554.72,1097.09,513.95,784.23,972.31,416.01,468.08,1385.91,277.39,450.58,79.67,124.25,88.93,197.93,471.01,174.61,76.84,14340.00,18083.00,189.00,23.20,2.71,0.09,116700.41,36824.67,105.74,762.00,22.01,48.69,0
1262.43,556.59,1100.85,513.95,786.48,972.31,416.01,468.56,1387.04,278.66,451.66,79.67,124.25,88.93,197.93,471.01,174.61,76.84,14363.00,18083.00,189.00,20.37,2.71,0.09,95929.88,36824.67,58.80,768.00,22.01,48.69,0
1363.42,574.30,1100.85,516.79,786.48,973.02,416.98,469.04,1387.04,278.66,451.66,79.67,124.25,88.93,197.93,471.01,174.61,77.77,14368.00,18083.00,179.00,20.93,2.71,0.09,99944.44,36824.67,105.74,769.00,22.01,48.53,0
1436.26,588.29,1099.91,517.74,786.48,973.02,416.98,469.52,1387.04,278.66,451.66,80.07,124.25,88.93,197.93,471.01,174.61,77.77,14372.00,18097.00,179.00,20.93,2.71,0.09,99944.44,31999.66,105.74,767.00,22.01,48.30,0
1436.26,587.36,1101.79,518.69,787.23,974.45,417.47,469.52,1388.16,279.09,463.49,80.07,124.25,88.93,197.93,471.01,174.61,77.77,14364.00,18097.00,166.00,20.79,2.71,0.09,98924.09,31999.66,105.74,762.00,21.96,48.14,0
1439.17,588.29,1100.85,517.74,787.23,973.02,417.47,469.04,1385.91,279.09,451.66,80.07,124.25,88.93,197.93,471.01,174.61,77.77,14366.00,18097.00,165.00,20.79,2.31,0.09,98924.09,31999.66,58.80,759.00,21.99,48.14,0
1456.65,591.08,1101.79,518.69,786.48,973.02,416.98,469.04,1387.04,278.66,462.41,80.07,124.25,89.75,197.93,471.01,175.21,77.77,14364.00,18097.00,157.00,21.66,2.31,0.09,102019.41,33428.20,58.80,749.00,22.00,48.09,0
1457.62,592.02,1100.85,518.69,786.48,973.02,416.98,469.04,1387.04,278.66,450.58,80.07,124.25,88.93,197.93,471.01,174.61,77.77,14352.00,18101.00,157.00,22.26,2.71,0.09,109657.50,33428.20,105.74,749.00,22.00,47.98,0
1457.62,591.08,1101.79,518.69,786.48,973.74,416.98,469.04,1387.04,278.66,450.58,80.07,124.25,89.75,197.93,471.01,174.61,77.77,14342.00,18089.00,171.00,22.72,2.71,0.09,113119.25,33428.20,105.74,749.00,22.01,47.98,0
1457.62,591.08,1101.79,518.69,786.48,973.74,416.98,469.04,1387.04,278.66,450.58,80.07,124.25,88.93,197.93,471.01,174.61,77.77,14348.00,18091.00,181.00,22.88,2.71,0.09,113119.25,35862.03,105.74,748.00,22.01,47.94,0
1458.59,592.02,1101.79,518.69,786.48,973.74,417.47,469.04,1387.04,278.66,450.58,80.07,124.25,89.75,197.93,471.01,174.61,77.77,14332.00,18091.00,179.00,22.88,2.71,0.09,114299.48,35862.03,105.74,745.00,22.01,48.07,0
1458.59,591.08,1101.79,518.69,786.48,974.45,417.47,469.52,1387.04,278.66,449.51,80.07,124.25,88.93,197.93,471.01,174.61,77.77,14331.00,18091.00,194.00,22.88,2.71,0.09,114299.48,35862.03,105.74,746.00,21.99,48.07,0
1417.80,583.63,1096.15,517.74,784.23,973.02,416.98,469.04,1387.04,277.39,449.51,80.07,124.25,88.93,197.93,471.01,174.61,77.77,14344.00,18077.00,187.00,23.04,2.71,0.09,115493.14,36179.78,105.74,746.00,22.04,48.50,0
1348.86,571.51,1095.21,515.84,784.23,973.02,416.50,469.04,1387.04,277.39,450.58,79.67,124.25,88.93,197.93,471.01,174.61,77.77,14349.00,18077.00,187.00,23.04,2.71,0.09,115493.14,36179.78,105.74,746.00,22.04,48.51,0
1275.05,558.45,1096.15,514.89,784.23,973.02,416.50,468.56,1387.04,277.39,450.58,79.67,124.25,88.93,197.93,471.01,174.61,76.84,14340.00,18077.00,188.00,23.04,2.71,0.09,115493.14,36179.78,105.74,748.00,22.04,48.51,0
1257.57,555.66,1096.15,513.95,784.23,972.31,416.01,468.56,1387.04,277.39,450.58,79.67,124.25,88.93,197.93,471.01,174.61,76.84,14332.00,18077.00,187.00,23.04,2.71,0.09,115493.14,36179.78,105.74,747.00,22.04,48.51,0
1253.69,554.72,1098.03,513.95,784.98,972.31,416.01,468.56,1387.04,277.82,450.58,79.28,124.25,88.93,197.93,471.01,174.61,76.84,14338.00,18077.00,187.00,23.04,2.71,0.09,115493.14,36179.78,105.74,746.00,22.03,48.42,0
1253.69,554.72,1099.91,513.95,785.73,973.02,416.01,468.08,1387.04,278.24,462.41,79.28,124.25,88.93,197.93,471.01,174.61,76.84,14345.00,18081.00,187.00,23.04,2.71,0.09,115493.14,36179.78,105.74,746.00,22.05,48.41,0
1270.20,557.52,1100.85,513.95,786.48,972.31,416.01,468.56,1387.04,278.66,462.41,79.67,124.25,88.93,197.93,471.01,174.61,76.84,14344.00,18081.00,183.00,23.04,2.71,0.09,115493.14,36179.78,105.74,747.00,22.05,48.41,0
1352.74,573.37,1101.79,516.79,786.48,973.74,416.50,469.04,1387.04,278.66,451.66,79.67,124.25,88.93,197.93,471.01,174.61,77.77,14345.00,18081.00,178.00,22.88,2.71,0.09,114299.48,36179.78,105.74,748.00,22.05,48.36,0
1437.23,588.29,1100.85,518.69,786.48,973.74,417.47,469.52,1388.16,278.66,451.66,80.07,124.25,88.93,197.93,471.01,174.61,77.77,14349.00,18081.00,176.00,22.88,2.71,0.09,114299.48,36179.78,105.74,749.00,22.05,48.36,0
1439.17,588.29,1101.79,518.69,786.48,973.74,416.98,469.52,1387.04,278.66,451.66,80.07,124.25,88.93,197.93,471.01,174.61,77.77,14353.00,18081.00,170.00,22.88,2.71,0.09,114299.48,35862.03,105.74,750.00,22.07,48.26,0
1439.17,588.29,1101.79,517.74,786.48,973.74,417.47,469.04,1387.04,278.66,462.41,80.07,124.25,88.93,197.93,471.01,174.61,77.77,14347.00,18088.00,170.00,22.88,2.71,0.09,114299.48,35862.03,105.74,749.00,22.05,48.26,0
1445.00,589.22,1101.79,518.69,786.48,973.02,416.98,469.04,1387.04,278.66,451.66,80.07,124.25,89.75,197.93,471.01,174.61,77.77,14344.00,18087.00,170.00,22.88,2.71,0.09,114299.48,35862.03,105.74,750.00,22.04,48.26,0
1459.56,592.02,1101.79,518.69,786.48,973.74,417.47,469.52,1387.04,278.66,451.66,80.07,124.25,88.93,197.93,471.01,174.61,77.77,14329.00,18087.00,170.00,22.88,2.71,0.09,114299.48,35862.03,105.74,750.00,22.04,48.37,0
1459.56,591.08,1101.79,518.69,787.23,973.74,417.47,469.52,1388.16,279.09,462.41,80.07,124.25,89.75,197.93,471.01,174.61,77.77,14351.00,18087.00,170.00,22.88,2.71,0.09,114299.48,35862.03,105.74,752.00,22.03,48.37,0
1459.56,591.08,1101.79,518.69,786.48,973.74,416.98,469.52,1387.04,278.66,448.43,80.07,124.25,88.93,197.93,471.01,174.61,77.77,14352.00,18082.00,170.00,22.88,2.71,0.09,114299.48,35862.03,105.74,752.00,22.03,48.37,0
1460.53,592.02,1101.79,518.69,786.48,973.02,417.47,469.52,1387.04,279.09,462.41,80.07,124.25,89.75,197.93,471.01,174.61,77.77,14342.00,18074.00,185.00,23.04,2.71,0.09,115493.14,35862.03,105.74,752.00,22.03,48.37,0
1460.53,592.02,1101.79,518.69,786.48,973.74,417.47,469.52,1385.91,279.09,451.66,80.07,124.25,89.75,197.93,471.01,174.61,77.77,14334.00,18081.00,188.00,23.04,2.71,0.09,115493.14,35862.03,105.74,751.00,22.00,48.37,0
1460.53,592.02,1101.79,518.69,787.23,974.45,417.47,469.52,1388.16,279.09,451.66,80.07,124.25,89.75,197.93,471.01,174.61,77.77,14338.00,18081.00,194.00,23.04,2.71,0.09,115493.14,36179.78,105.74,752.00,22.01,48.32,0
1452.76,590.15,1101.79,518.69,786.48,973.74,417.47,469.52,1387.04,278.66,451.66,80.07,124.25,88.93,197.93,471.01,174.61,77.77,14340.00,18081.00,190.00,23.04,2.71,0.09,115493.14,36179.78,105.74,753.00,22.01,48.50,0
1442.08,588.29,1098.97,518.69,785.73,973.74,417.47,469.52,1387.04,278.24,450.58,80.07,124.25,89.75,197.93,471.01,174.61,77.77,14345.00,18081.00,191.00,23.04,2.71,0.09,115493.14,36179.78,105.74,752.00,22.05,48.50,0
1368.28,576.17,1096.15,516.79,784.23,973.02,416.50,469.04,1387.04,277.39,450.58,79.67,124.25,88.93,197.93,471.01,174.61,77.77,14338.00,18081.00,186.00,23.04,2.71,0.09,115493.14,36179.78,105.74,752.00,22.03,48.50,0
1261.46,556.59,1096.15,514.89,784.23,973.02,416.01,468.56,1385.91,277.39,449.51,79.67,124.25,88.93,197.93,471.01,174.61,76.84,14327.00,18081.00,187.00,23.04,2.71,0.08,115493.14,36179.78,105.74,752.00,22.03,48.71,0
1257.57,555.66,1097.09,513.95,784.98,972.31,416.01,468.08,1385.91,277.82,449.51,79.28,124.25,88.93,197.93,471.01,174.61,76.84,14324.00,18081.00,185.00,19.56,2.71,0.09,115493.14,29338.63,105.74,753.00,22.04,48.71,0
1441.11,588.29,1100.85,518.69,786.48,973.74,416.98,469.04,1387.04,278.66,450.58,80.07,124.25,88.93,197.93,471.01,174.61,77.77,14330.00,18067.00,187.00,20.65,2.31,0.09,97914.97,29338.63,58.80,753.00,22.08,48.71,0
1441.11,588.29,1101.79,518.69,786.48,973.74,417.47,469.52,1388.16,278.66,451.66,80.07,124.25,89.75,197.93,471.01,174.61,77.77,14333.00,18067.00,191.00,20.65,2.31,0.09,97914.97,31447.08,58.80,753.00,22.08,48.71,0
1456.65,591.08,1101.79,518.69,786.48,973.74,417.47,469.52,1385.91,279.09,450.58,80.07,124.25,89.75,197.93,471.01,174.61,77.77,14329.00,18075.00,191.00,20.79,2.71,0.09,98924.09,31447.08,105.74,753.00,22.08,48.67,0
1461.50,592.95,1102.73,518.69,787.23,974.45,417.47,469.52,1388.16,279.09,451.66,80.07,124.25,88.93,197.93,471.01,174.61,77.77,14348.00,18079.00,198.00,21.96,2.71,0.09,107413.77,31999.66,105.74,755.00,22.08,48.73,0
1461.50,592.95,1101.79,518.69,786.48,973.74,417.47,469.52,1385.91,279.09,462.41,80.07,124.25,89.75,197.93,471.01,174.61,77.77,14356.00,18084.00,178.00,22.41,2.71,0.09,110798.44,31999.66,105.74,756.00,22.08,48.58,0
1461.50,592.02,1102.73,518.69,787.23,974.45,417.47,469.52,1388.16,279.09,450.58,80.07,124.25,88.93,197.93,471.01,174.61,77.77,14348.00,18084.00,170.00,22.57,2.71,0.09,110798.44,31999.66,105.74,758.00,22.07,48.17,0
1461.50,592.02,1101.79,518.69,786.48,973.74,416.98,469.52,1387.04,278.66,450.58,80.07,124.25,88.93,197.93,471.01,174.61,77.77,14338.00,18085.00,181.00,21.66,2.71,0.09,105219.80,31999.66,105.74,757.00,22.07,47.91,0
1450.82,590.15,1101.79,518.69,786.48,973.74,416.98,469.04,1387.04,278.66,451.66,80.07,124.25,88.93,197.93,471.01,174.61,77.77,14337.00,18085.00,182.00,22.72,2.71,0.09,105219.80,35547.36,105.74,757.00,22.11,47.83,0
1351.77,572.44,1095.21,515.84,784.23,973.02,416.50,469.04,1387.04,277.39,450.58,79.67,124.25,88.93,197.93,471.01,174.61,76.84,14336.00,18079.00,183.00,22.57,2.71,0.09,105219.80,35235.75,105.74,757.00,22.11,48.09,0
1263.40,556.59,1095.21,513.95,784.23,972.31,416.01,468.56,1387.04,277.39,450.58,79.28,124.25,88.93,197.93,471.01,174.61,76.84,14332.00,18080.00,183.00,22.57,2.71,0.09,111952.29,35235.75,105.74,758.00,22.11,48.16,0
1336.23,569.64,1101.79,515.84,786.48,973.02,416.50,468.56,1387.04,278.66,449.51,79.67,124.25,88.93,197.93,471.01,174.61,77.77,14324.00,18070.00,200.00,22.57,2.71,0.09,111952.29,35235.75,105.74,760.00,22.05,48.27,0
1461.50,592.02,1101.79,518.69,786.48,973.74,417.47,469.52,1387.04,278.66,451.66,80.07,124.25,89.75,197.93,471.01,174.61,77.77,14343.00,18071.00,200.00,22.11,2.71,0.09,108529.35,34318.87,105.74,761.00,22.10,48.27,0
1462.47,592.02,1101.79,518.69,787.23,974.45,417.47,469.52,1388.16,279.09,450.58,80.07,124.25,89.75,197.93,471.01,174.61,77.77,14339.00,18076.00,181.00,22.41,2.71,0.09,110798.44,34318.87,105.74,762.00,22.10,48.40,0
1462.47,592.95,1102.73,518.69,787.23,973.74,417.47,469.52,1388.16,279.09,463.49,80.07,124.25,89.75,197.93,471.01,174.61,77.77,14331.00,18076.00,194.00,22.41,2.71,0.09,110798.44,34318.87,105.74,762.00,22.05,48.40,0
1462.47,592.02,1101.79,518.69,786.48,974.45,417.47,469.52,1388.16,279.09,450.58,80.07,124.25,88.93,197.93,471.01,174.61,77.77,14337.00,18076.00,190.00,22.41,2.71,0.09,110798.44,34927.15,105.74,762.00,22.05,48.45,0
1462.47,592.95,1101.79,518.69,786.48,973.74,417.47,469.52,1387.04,279.09,451.66,80.07,124.25,88.93,197.93,471.01,174.61,77.77,14334.00,18084.00,190.00,22.41,2.71,0.09,110798.44,34927.15,105.74,762.00,22.05,48.45,0
1462.47,592.02,1101.79,518.69,786.48,973.02,416.98,469.04,1387.04,278.66,450.58,80.07,124.25,88.93,197.93,471.01,174.61,77.77,14347.00,18071.00,187.00,22.26,2.71,0.09,109657.50,34927.15,105.74,761.00,22.03,48.45,0
1462.47,592.02,1101.79,518.69,787.23,973.74,417.47,469.52,1387.04,278.66,463.49,80.07,124.25,89.75,197.93,471.01,174.61,77.77,14344.00,18079.00,187.00,22.26,2.71,0.09,109657.50,34927.15,105.74,763.00,22.03,48.45,0
1462.47,592.02,1101.79,518.69,786.48,973.74,417.47,469.52,1387.04,278.66,449.51,80.07,124.25,89.75,197.93,471.01,174.61,77.77,14345.00,18082.00,187.00,22.26,2.71,0.09,109657.50,34621.53,105.74,763.00,22.05,48.45,0
