1350.80,580.83,1123.41,526.27,803.69,995.17,423.28,476.73,1415.21,283.33,472.09,80.46,125.98,90.58,203.43,478.04,177.02,77.77,14597.00,18032.00,187.00,30.98,2.71,0.08,180512.03,52862.32,105.74,541.00,21.14,0.00,3
1348.86,580.83,1126.23,526.27,803.69,995.17,423.28,476.25,1415.21,283.33,472.09,80.46,125.98,90.58,203.43,476.86,177.02,77.77,14598.00,18061.00,187.00,29.88,2.71,0.08,170963.27,52862.32,105.74,541.00,21.14,46.71,3
1358.57,582.69,1130.93,528.17,802.19,991.60,421.82,475.29,1409.57,282.91,460.26,80.46,125.98,90.58,198.85,469.83,176.42,78.71,14568.00,18061.00,187.00,28.22,2.71,0.08,170963.27,46914.44,105.74,536.00,21.12,46.68,3
1566.38,623.72,1133.75,533.86,796.21,984.45,420.37,472.89,1396.05,281.63,457.03,81.25,125.98,89.75,193.35,460.46,177.02,80.59,14530.00,18610.00,0.00,18.53,2.71,0.13,170963.27,29338.63,105.74,647.00,28.17,46.68,3
1572.21,625.58,1135.63,535.76,793.21,981.60,419.40,471.45,1390.42,280.36,469.94,81.25,125.98,89.75,188.77,453.43,176.42,80.59,14475.00,18610.00,0.00,16.54,3.11,0.13,70093.93,29338.63,177.53,781.00,29.50,46.68,3
1595.52,632.11,1134.69,537.65,786.48,973.74,416.50,468.56,1380.28,278.66,467.79,80.86,125.98,89.75,184.19,444.06,176.42,81.52,14406.00,18753.00,0.00,13.39,3.11,0.21,70093.93,18066.07,177.53,2678.00,34.12,47.47,3
1612.02,634.90,1133.75,537.65,784.98,970.17,416.50,468.08,1376.90,278.24,452.73,80.86,125.12,88.93,183.27,441.71,176.42,82.46,14357.00,18734.00,0.00,12.54,3.11,0.21,46176.96,18066.07,177.53,3663.00,36.59,47.47,3
1619.79,636.77,1133.75,538.60,779.74,963.74,414.07,466.16,1365.63,276.54,449.51,80.86,125.12,88.93,177.77,432.34,175.81,82.46,14277.00,18734.00,0.00,10.79,3.11,0.26,46176.96,13703.42,177.53,2896.00,37.87,34.06,3
1622.71,637.70,1133.75,539.55,776.75,960.16,413.11,465.20,1359.99,276.12,464.56,80.86,125.12,88.93,175.02,426.48,175.21,83.40,14259.00,18698.00,0.00,10.38,3.11,0.26,46176.96,13033.02,282.35,3000.00,39.44,32.77,3
1621.74,636.77,1131.87,539.55,775.25,958.74,412.62,464.72,1357.74,275.70,449.51,80.86,124.25,88.11,175.02,426.48,175.21,83.40,14231.00,18642.00,0.00,10.11,3.11,0.27,46176.96,12604.38,282.35,3278.00,43.28,32.77,3
1622.71,636.77,1131.87,539.55,775.25,958.02,412.62,464.72,1355.49,275.70,463.49,80.86,124.25,88.11,175.94,427.65,175.81,83.40,14179.00,18642.00,0.00,9.72,3.11,0.27,31445.20,12604.38,282.35,3278.00,43.28,32.77,3
1627.56,637.70,1131.87,539.55,772.26,955.16,411.65,463.28,1350.98,275.27,447.36,80.46,124.25,88.11,173.19,422.97,175.21,83.40,14073.00,18642.00,0.00,9.41,3.95,0.27,29933.43,12604.38,429.79,3906.00,44.29,32.77,3
1635.33,638.63,1130.93,540.50,769.27,950.88,410.68,461.84,1345.35,274.42,461.34,80.46,124.25,88.11,171.36,419.45,175.21,83.40,14031.00,18348.00,0.00,9.05,3.95,0.27,28213.67,10933.09,429.79,40000.00,45.08,22.73,3
1632.42,639.56,1129.99,540.50,767.02,948.02,410.20,461.36,1341.97,273.57,447.36,80.46,124.25,88.11,169.53,414.77,174.61,84.33,14025.00,18303.00,0.00,8.81,3.95,0.28,28213.67,10572.66,429.79,23235.00,45.80,22.59,3
1630.48,638.63,1128.11,540.50,766.27,946.59,409.72,460.88,1339.71,273.57,445.21,80.46,124.25,88.11,169.53,415.94,174.61,84.33,14042.00,18303.00,15.00,8.81,3.95,0.28,27121.48,10572.66,429.79,187.00,45.80,22.09,3
1634.36,639.56,1128.11,541.45,764.03,944.45,409.23,459.92,1336.33,272.73,445.21,80.46,124.25,88.11,167.69,411.25,174.00,84.33,13991.00,18303.00,88.00,9.05,4.39,0.28,28213.67,10572.66,630.96,93.00,47.87,21.32,3
1637.27,640.50,1128.11,541.45,764.03,943.73,409.23,460.40,1336.33,273.15,460.26,80.46,124.25,88.11,167.69,412.42,174.00,84.33,14074.00,18303.00,88.00,9.35,4.39,0.28,29639.80,10572.66,630.96,88.00,49.59,21.32,3
1639.22,640.50,1127.17,541.45,761.78,941.59,408.26,459.44,1332.95,272.30,445.21,80.46,123.38,87.28,166.78,408.91,174.00,84.33,13983.00,18303.00,88.00,9.60,4.39,0.24,29639.80,11788.65,630.96,88.00,50.21,21.32,3
1643.10,641.43,1127.17,542.39,760.29,939.45,407.78,458.48,1329.57,271.45,443.05,80.46,123.38,87.28,164.94,405.39,173.40,84.33,13994.00,18078.00,88.00,10.18,4.39,0.23,33689.55,11788.65,898.55,88.00,50.21,21.32,3
1645.04,643.29,1127.17,542.39,758.79,937.30,406.81,457.52,1326.19,271.03,458.11,80.46,123.38,87.28,163.11,400.71,172.79,85.27,13990.00,18064.00,88.00,10.58,5.27,0.23,35739.73,13364.02,1246.93,88.00,50.70,17.07,3
1647.95,644.23,1126.23,542.39,755.80,934.45,405.84,456.56,1322.81,270.61,439.83,80.07,123.38,87.28,161.28,397.19,172.79,85.27,13941.00,18009.00,88.00,10.65,5.27,0.23,35739.73,13476.20,1246.93,88.00,52.49,17.07,3
1645.04,645.16,1126.23,543.34,753.55,931.59,404.87,455.12,1316.05,269.33,441.98,80.07,123.38,87.28,159.45,393.68,172.19,85.27,13892.00,18009.00,262.00,10.04,5.72,0.23,33032.54,13476.20,1692.19,88.00,53.42,17.07,3
1645.04,645.16,1124.35,543.34,749.81,928.02,403.90,454.16,1311.54,268.48,438.75,80.07,122.51,86.46,157.61,388.99,172.19,85.27,13900.00,18009.00,296.00,11.08,6.18,0.23,33032.54,14169.45,2252.26,89.00,54.78,17.07,3
1637.27,643.29,1122.47,542.39,749.06,926.59,403.42,453.20,1310.42,268.48,454.88,80.07,122.51,87.28,157.61,388.99,171.59,86.21,13852.00,17911.00,296.00,12.06,6.18,0.20,33032.54,15797.50,2252.26,89.00,54.78,17.07,3
1619.79,637.70,1116.83,541.45,749.06,927.30,404.39,455.12,1314.92,268.48,438.75,80.07,122.51,87.28,160.36,397.19,172.79,85.27,13694.00,17774.00,393.00,15.18,6.18,0.16,68703.23,23277.15,2252.26,89.00,56.49,13.40,3
1512.00,615.32,1114.95,539.55,749.06,928.02,403.90,454.64,1312.67,268.06,454.88,79.67,122.51,86.46,159.45,394.85,172.19,85.27,13795.00,17633.00,583.00,18.04,5.72,0.14,79889.84,23879.07,1692.19,89.00,55.98,10.81,3
1467.33,606.93,1115.89,538.60,748.31,928.02,403.42,453.68,1311.54,268.06,454.88,79.28,122.51,86.46,158.53,392.50,172.19,85.27,13672.00,17633.00,644.00,20.10,5.72,0.12,82350.46,30372.93,2252.26,89.00,56.46,11.49,3
1439.17,601.34,1114.95,537.65,749.06,928.73,403.42,454.16,1312.67,268.06,440.90,79.28,122.51,86.46,159.45,392.50,172.19,85.27,13759.00,17582.00,669.00,21.96,5.72,0.11,82350.46,34019.11,1692.19,89.00,56.27,12.03,3
1443.05,603.20,1118.71,538.60,747.57,926.59,402.45,452.72,1310.42,267.64,434.45,79.28,122.51,86.46,155.78,386.65,170.98,85.27,13716.00,17582.00,669.00,21.66,5.72,0.12,82350.46,33428.20,1692.19,89.00,56.27,10.25,3
1445.00,604.14,1120.59,539.55,746.82,924.44,401.97,452.72,1308.16,267.64,454.88,79.28,122.51,86.46,155.78,385.47,170.98,85.27,13726.00,17582.00,652.00,21.36,5.72,0.12,103074.35,33428.20,1692.19,89.00,55.61,11.71,3
1438.20,602.27,1118.71,537.65,749.81,928.02,403.42,454.16,1311.54,268.91,437.68,79.28,122.51,86.46,159.45,394.85,172.19,85.27,13777.00,17623.00,621.00,23.68,5.72,0.12,120405.73,37482.34,1692.19,89.00,55.61,12.27,3
1460.53,606.00,1120.59,537.65,752.80,930.16,404.39,455.60,1314.92,270.18,439.83,79.67,122.51,87.28,161.28,397.19,172.79,85.27,13738.00,17551.00,689.00,25.93,5.72,0.12,138022.95,37482.34,1692.19,89.00,56.61,10.97,3
1606.20,633.97,1125.29,542.39,755.05,934.45,405.84,456.08,1320.56,270.18,457.03,80.07,123.38,87.28,159.45,393.68,172.19,85.27,13864.00,17573.00,977.00,32.36,5.27,0.10,192771.12,53851.83,1246.93,88.00,52.23,11.65,3
1607.17,633.04,1125.29,542.39,755.05,933.73,405.36,455.60,1317.18,270.18,441.98,80.07,123.38,87.28,159.45,393.68,172.19,85.27,13745.00,17651.00,598.00,29.88,5.27,0.10,190664.33,50478.32,1246.93,89.00,52.06,12.92,3
1625.62,639.56,1128.11,544.29,750.56,929.44,403.90,453.68,1312.67,268.91,455.96,80.07,123.38,87.28,154.87,384.30,170.38,86.21,13470.00,17651.00,594.00,27.05,5.27,0.11,190664.33,44428.50,1246.93,89.00,54.10,12.35,3
1615.91,636.77,1125.29,543.34,752.06,930.16,404.39,455.12,1312.67,269.33,439.83,80.07,123.38,87.28,157.61,390.16,171.59,86.21,13365.00,17651.00,645.00,26.11,5.27,0.11,139491.39,44428.50,898.55,90.00,58.33,12.35,3
1604.26,633.97,1125.29,543.34,749.81,928.02,402.94,454.16,1309.29,268.48,454.88,79.67,123.38,86.46,154.87,384.30,170.98,85.27,13521.00,17581.00,670.00,24.69,4.82,0.11,128208.98,44428.50,898.55,90.00,59.24,12.35,3
1610.08,636.77,1123.41,543.34,747.57,925.87,402.94,453.20,1305.91,268.06,453.81,79.67,122.51,86.46,154.87,383.13,170.98,86.21,13588.00,17588.00,655.00,24.18,4.82,0.13,124240.20,37816.06,898.55,90.00,60.87,11.64,3
1596.49,633.04,1119.65,541.45,749.06,926.59,403.42,453.68,1309.29,268.91,435.53,79.67,122.51,86.46,157.61,390.16,171.59,85.27,13598.00,17588.00,870.00,25.93,4.82,0.13,138022.95,37816.06,898.55,91.00,60.87,11.04,3
1581.92,628.38,1120.59,540.50,751.31,930.16,404.39,454.64,1311.54,269.33,438.75,79.67,122.51,87.28,158.53,393.68,172.19,85.27,13654.00,17588.00,1176.00,27.43,4.82,0.13,150267.73,45240.21,898.55,91.00,61.65,11.04,3
1576.09,627.44,1120.59,540.50,752.80,932.30,404.87,456.08,1314.92,269.76,437.68,80.07,122.51,87.28,159.45,394.85,172.19,85.27,13755.00,17588.00,1205.00,29.25,4.82,0.13,165506.34,45240.21,898.55,90.00,61.65,11.04,3
1571.24,626.51,1121.53,540.50,754.30,933.73,405.84,456.56,1317.18,270.18,440.90,80.07,123.38,87.28,160.36,396.02,172.79,85.27,13777.00,17588.00,1205.00,30.54,4.39,0.13,176622.55,45240.21,630.96,90.00,59.91,7.82,3
1563.47,623.72,1121.53,539.55,755.80,935.16,406.33,456.56,1319.43,270.61,439.83,80.07,123.38,87.28,160.36,397.19,172.79,85.27,13708.00,17381.00,1205.00,34.32,4.82,0.13,210605.61,45240.21,630.96,89.00,57.91,8.08,3
1556.67,622.78,1122.47,539.55,755.80,936.59,406.33,457.04,1322.81,270.61,458.11,80.07,123.38,87.28,161.28,397.19,172.79,85.27,13808.00,17381.00,1285.00,36.14,4.82,0.08,227757.95,45240.21,630.96,89.00,56.58,8.48,3
1561.53,623.72,1122.47,539.55,756.55,937.30,406.81,457.52,1323.94,271.03,440.90,80.07,123.38,87.28,162.20,399.53,172.79,85.27,13835.00,17381.00,1180.00,37.24,4.82,0.08,227757.95,66914.03,898.55,88.00,56.58,8.48,3
1560.56,622.78,1123.41,539.55,758.04,939.45,406.81,458.00,1326.19,271.45,459.18,80.07,123.38,87.28,162.20,400.71,172.79,84.33,13891.00,17450.00,1088.00,38.38,4.82,0.08,249343.61,66914.03,630.96,88.00,52.13,8.48,3
1547.93,620.92,1123.41,538.60,758.04,939.45,406.81,458.00,1327.32,271.45,459.18,80.07,123.38,87.28,162.20,401.88,172.79,84.33,13913.00,17450.00,963.00,39.26,4.82,0.08,258035.38,71598.12,630.96,88.00,51.34,8.48,3
1528.51,617.19,1123.41,538.60,759.54,940.88,407.29,458.48,1328.44,271.45,441.98,80.07,123.38,88.11,164.03,404.22,172.79,84.33,13918.00,17483.00,963.00,39.87,4.39,0.08,264023.19,71598.12,630.96,88.00,51.34,8.48,3
1539.19,619.05,1122.47,538.60,760.29,943.02,407.78,458.96,1331.83,271.88,444.13,80.07,124.25,88.11,164.03,404.22,172.79,84.33,13956.00,17483.00,854.00,40.48,4.39,0.07,264023.19,74447.38,630.96,87.00,50.60,11.07,3
1541.13,619.05,1122.47,537.65,761.04,943.73,408.26,459.44,1332.95,272.30,445.21,80.07,124.25,88.11,164.94,406.56,172.79,84.33,14029.00,17483.00,732.00,41.42,4.39,0.07,264023.19,76672.26,630.96,0.00,50.60,11.48,3
